{
  "IsEncrypted": false,
  "Values": {
    "AzureWebJobsStorage": "DefaultEndpointsProtocol=https;AccountName=httptriggerheadlessapp;AccountKey=6yLDFcGK/79bkA9vVrexLlN6f2uBQGsXnLQpo9HfwUg+qy/wm0D41nBu6xSAkvkCcAqmeHqznTzl9i5leh1TnQ==",
    "FUNCTIONS_WORKER_RUNTIME": "node",
    "FUNCTIONS_EXTENSION_VERSION": "~2",
    "WEBSITE_NODE_DEFAULT_VERSION": "10.6.0",
    "WEBSITE_CONTENTAZUREFILECONNECTIONSTRING": "DefaultEndpointsProtocol=https;AccountName=httptriggerheadlessapp;AccountKey=6yLDFcGK/79bkA9vVrexLlN6f2uBQGsXnLQpo9HfwUg+qy/wm0D41nBu6xSAkvkCcAqmeHqznTzl9i5leh1TnQ==",
    "WEBSITE_CONTENTSHARE": "httptrigger-headless-app-content",
    "WEBSITE_RUN_FROM_PACKAGE": "1",
    "COSMOS_ONE": "AccountEndpoint=https://serverless-container.documents.azure.com:443/;AccountKey=6MlygG1Wh35cNjb5s4iIkTRfKZKkjrNyRUreLhHZmguLE6aCdxUJY8BpaoYs2PXeLWI4IswU9ayFxYr5WMsWng==;"
  }
}
